{
	"data":
	{
		"fund":
		{
			"fundType":"Tipo",
			"fundTypeDescription":"Descripcion del tipo de fondo",
			"contract":
			{
				"contractNumber":"num111111",
				"highDate":"12-11-2017",
				"state":"A",
				"formalizationDate":"12-11-2017",
				"modificationDate":"12-11-2017"
			},
			"customer":
			{
				"customerParticipateNumber":"88888888",
				"pseudonym":"Seudonimo del Cliente (Sr.)",
				"customerParticipateName":"Roberto Eustacio Gomez Pataquiva"
			},
			"associatedAccountIndicator":"S",
			"associatedAccount":
			{
				"associateAccountOffice":"0029",
				"associatedAccountDigit":"12",
				"associatedAccountNumber":"1234567890",
				"associatedAccountTaxRecord":"0010"
			},
			"positionedAccount":
			{
				"positionedAccountOffice":"0026",
				"positionedAccountDigit":"13",
				"positionedAccountNumber":"0987654321"
			},
			"domiciliationIndicator":"N",
			"domiciliation":
			{
				"discountDate":"23-09-2017",
				"consecutiveTaxpayer":"4321098765431234",
				"domiciliationAmount":12345678.99
			},
			"exonerationIndicator":"S",
			"exoneration":
			{
				"exonerationTopAmount":12345678.99,
				"exonerationAccumulatedAmount":12345678.99
			},
			"channel":"OC",
			"subChannel":"DH",
			"campaign":"Campaña",
			"advisorCode":"12345678"
		}
	}
}
